<svg width="457" height="512" viewBox="0 0 457 512" fill="none" xmlns="http://www.w3.org/2000/svg">
    <path fill-rule="evenodd" clip-rule="evenodd" d="M162.522 0.508754C161.028 1.06188 157.15 2.38656 153.904 3.45152C150.658 4.51648 147.768 6.10089 147.48 6.97242C147.069 8.21451 147.287 8.28732 148.49 7.31147C151.132 5.16959 165.702 1.35312 169.903 1.70303C175.301 2.15184 175.447 4.23721 170.521 10.5596C165.502 17.0015 146.758 28.89 124.49 39.7548C104.018 49.7426 94.4948 53.6547 90.6535 53.6547C85.7723 53.6547 86.8535 51.2259 94.8784 44.1635C105.474 34.8385 120.86 24.766 136.402 16.9787C143.859 13.2437 149.347 10.1869 148.598 10.1869C145.451 10.1869 117.411 25.2637 109.337 31.297C105.517 34.1518 103.18 34.9592 104.387 33.0075C105.457 31.2753 103.163 31.7513 101.649 33.5758C100.487 34.9766 100.592 35.1298 102.332 34.5723C103.462 34.2104 102.431 35.5145 100.04 37.4727C97.6494 39.4298 93.0898 43.6538 89.907 46.8607C85.1801 51.6226 84.3586 52.9788 85.4213 54.26C87.3534 56.5877 90.9372 56.1878 99.7401 52.6604C111.966 47.7626 137.039 35.6123 143.304 31.5502C146.403 29.5409 152.118 26.0135 156.002 23.7119C165.259 18.2273 175.562 8.03521 175.562 4.36109C175.562 2.85384 175.195 1.40419 174.747 1.13904C172.803 -0.0106886 165.011 -0.412764 162.522 0.508754ZM158.176 5.82595C157.279 6.34539 155.62 7.06153 154.489 7.41688C153.357 7.77331 152.624 8.24385 152.859 8.46228C153.595 9.14798 163.609 6.4758 163.609 5.5934C163.609 4.48714 160.237 4.63059 158.176 5.82595ZM166.869 5.90419C166.869 6.53665 167.358 6.75291 167.955 6.38343C168.553 6.01395 169.042 5.49669 169.042 5.23262C169.042 4.96855 168.553 4.75339 167.955 4.75339C167.358 4.75339 166.869 5.27174 166.869 5.90419ZM136.239 12.0158C137.023 12.3298 137.961 12.2907 138.321 11.9299C138.682 11.5691 138.041 11.3127 136.896 11.3594C135.63 11.4116 135.372 11.6691 136.239 12.0158ZM129.379 14.5336C128.53 15.9094 129.968 15.9094 132.096 14.5336C133.501 13.6263 133.472 13.4785 131.889 13.4632C130.878 13.4546 129.749 13.936 129.379 14.5336ZM93.5201 38.4409C93.1507 39.0386 93.3376 39.5276 93.9352 39.5276C94.5329 39.5276 95.324 39.0386 95.6934 38.4409C96.0629 37.8433 95.876 37.3543 95.2783 37.3543C94.6807 37.3543 93.8896 37.8433 93.5201 38.4409ZM136.365 42.7616C130.578 45.8218 129.639 47.5475 129.091 56.1389C128.648 63.0981 128.85 64.2108 130.888 66.0484C133.928 68.7913 133.79 71.6808 130.514 73.827C127.328 75.9156 125.576 75.1202 125.576 71.5852C125.576 70.1616 125.087 68.6946 124.49 68.3251C122.058 66.8222 123.527 74.2823 126.314 77.5957C128.931 80.7058 129.674 80.9959 133.649 80.4689C136.902 80.0375 138.863 78.9399 141.061 76.3177C142.704 74.3573 144.049 72.0111 144.049 71.1027C144.049 70.1942 142.851 71.2135 141.387 73.3695C139.922 75.5244 137.926 77.5946 136.951 77.9684C134.96 78.7324 128.836 78.8986 128.836 78.189C128.836 77.9358 130.303 76.2623 132.096 74.4692C136.051 70.5137 136.089 69.9062 132.639 65.8061C124.609 56.2628 135.484 36.3958 144.049 44.9611C145.788 46.6998 146.252 48.7091 146.368 55.0131C146.513 62.8492 146.517 62.8623 147.341 57.4581C148.407 50.4565 146.927 44.5862 143.534 42.3628C140.367 40.2872 141.126 40.2449 136.365 42.7616ZM215.424 42.1977C213.144 43.0062 210.436 44.4286 209.408 45.3599C208.38 46.2901 205.193 48.0886 202.326 49.3568C199.459 50.625 197.384 51.9323 197.713 52.2615C198.605 53.1548 204.807 50.4337 210.237 46.7672C213.643 44.4667 216.414 43.5028 219.828 43.4311C224.042 43.343 225.08 43.8266 228.347 47.3899C232.834 52.2844 233.244 57.1549 229.694 63.3252C227.574 67.008 227.472 67.8176 228.739 70.8766C229.519 72.7599 230.766 74.3019 231.509 74.3019C233.859 74.3019 238.587 78.7193 238.587 80.9155C238.587 82.0761 238.021 83.9311 237.329 85.0395C235.412 88.1094 236.958 90.811 240.399 90.4035C241.999 90.2144 243.534 89.3787 243.807 88.5474C244.183 87.4031 243.609 87.2097 241.445 87.753C238.198 88.568 238.132 88.4452 239.812 84.757C241.717 80.5754 240.213 77.249 234.898 73.89C232.227 72.2013 229.824 70.2529 229.558 69.5606C229.292 68.8673 230.238 65.892 231.658 62.9481C233.078 60.0042 234.241 56.2943 234.241 54.7023C234.241 51.0379 228.637 43.2018 225.336 42.2509C220.182 40.7654 219.477 40.761 215.424 42.1977ZM138.01 46.8802C134.339 49.4264 131.455 58.0015 134.269 58.0015C134.867 58.0015 135.371 56.6572 135.391 55.0131C135.437 50.9705 137.822 47.9843 140.256 48.9189C141.587 49.4296 142.024 49.2068 141.685 48.1908C141.08 46.3793 139.529 45.8261 138.01 46.8802ZM172.191 48.4929C169.701 50.1425 167.261 53.4776 164.695 58.7415C162.604 63.0329 159.961 67.5557 158.822 68.7934C155.991 71.8677 152.269 71.621 149.562 68.1784C148.323 66.6037 147.309 65.8159 147.309 66.4277C147.309 70.442 155.333 74.0139 159.108 71.6808C159.885 71.2005 162.481 66.7037 164.875 61.6875C167.27 56.6713 169.604 52.568 170.063 52.568C170.522 52.568 172.217 51.3455 173.829 49.8513C175.441 48.357 177.855 47.1345 179.191 47.1345C183.202 47.1345 189.531 50.9966 194.185 56.2834C196.594 59.0219 199.07 61.2616 199.687 61.2616C201.415 61.2616 193.124 52.3898 188.262 49.0362C182.852 45.3056 177.287 45.1176 172.191 48.4929ZM216.199 49.1264C216.507 49.6252 218.232 49.8165 220.033 49.5513C222.865 49.1362 223.621 49.6024 225.622 52.9929C226.894 55.15 228.376 56.9148 228.915 56.9148C230.493 56.9148 230.07 55.7205 227.122 51.8551C224.791 48.7993 223.657 48.2212 219.995 48.2212C217.6 48.2212 215.892 48.6287 216.199 49.1264ZM178.279 51.7704C176.486 52.3648 174.092 53.6438 172.958 54.611C169.334 57.7059 164.694 64.7727 164.738 67.1297C164.769 68.8184 165.208 68.4229 166.428 65.6083C169.595 58.296 179.655 50.7934 182.491 53.6297C183.893 55.0315 185.342 55.0641 185.342 53.6927C185.342 51.6834 181.606 50.6663 178.279 51.7704ZM137.951 55.3184C136.959 56.8311 136.526 58.4209 136.987 58.8502C137.449 59.2805 138.054 58.9925 138.332 58.2123C138.611 57.432 139.858 55.8422 141.105 54.6805C143.024 52.8929 143.094 52.568 141.563 52.568C140.568 52.568 138.942 53.8057 137.951 55.3184ZM207.589 60.127C207.942 60.6986 208.888 60.9149 209.69 60.6063C210.493 60.2987 212.515 61.2203 214.183 62.6558C221.099 68.6033 215.998 77.1827 203.038 81.4035C199.58 82.5304 196.263 83.7724 195.665 84.1658C195.067 84.5581 191.954 85.2134 188.747 85.622C184.151 86.2067 182.506 85.9926 180.977 84.6092C179.769 83.5171 178.781 83.2704 178.356 83.9572C177.073 86.0317 182.07 87.4911 188.387 86.8869C195.614 86.1958 202.786 84.1191 209.143 80.8764C213.788 78.5063 216.11 78.6661 215.104 81.2872C214.446 83.0009 218.6 86.2555 221.443 86.2555C222.505 86.2555 223.374 86.7185 223.374 87.2857C223.374 87.8519 227.568 92.8072 232.692 98.2972C237.818 103.787 242.463 109.467 243.015 110.921C244.212 114.066 244.314 121.084 243.189 122.769C241.487 125.319 237.712 126.489 234.784 125.377C231.172 124.003 229.894 124.003 229.894 125.377C229.894 125.974 230.892 126.463 232.111 126.463C235.433 126.463 242.424 130.362 245.019 133.663C247.855 137.267 247.312 137.932 242.813 136.364C240.893 135.695 239.136 135.332 238.91 135.558C238.684 135.785 239.54 137.734 240.813 139.892C244.244 145.708 242.885 146.844 238.156 142.115C234.376 138.334 233.88 138.128 232.643 139.819C231.255 141.718 227.03 142.279 224.912 140.846C224.263 140.407 223.178 139.069 222.5 137.874C221.822 136.678 221.252 136.344 221.234 137.13C221.164 140.148 223.545 142.697 227.047 143.354C230.388 143.981 230.841 144.555 232.443 150.193C233.405 153.577 234.422 157.325 234.704 158.521C234.984 159.716 234.959 157.516 234.649 153.631C234.339 149.746 233.855 145.752 233.575 144.757C232.939 142.497 234.862 141.155 236.067 143.018C236.556 143.774 237.816 147.083 238.864 150.371L240.773 156.347L240.208 150.922C239.657 145.622 239.685 145.555 241.443 148.066C242.499 149.574 243.461 153.677 243.77 157.999C244.234 164.479 244.612 165.505 246.926 166.559C248.373 167.219 250.745 167.758 252.197 167.758C255.363 167.758 258.47 171.971 257.959 175.573C257.684 177.512 256.808 178.158 254.098 178.42C251.893 178.633 249.77 179.805 248.375 181.579C246.279 184.244 246.243 185.395 248.103 190.343C248.523 191.459 248.059 191.478 245.781 190.44C242.841 189.1 242.694 188.541 242.481 177.868C242.432 175.36 241.786 172.702 241.049 171.962C240.311 171.222 236.154 170.338 231.812 169.996C226.347 169.566 224.001 168.96 224.189 168.023C224.338 167.28 223.712 166.671 222.797 166.671C220.287 166.671 219.705 163.821 221.648 161.046C224.255 157.324 223.775 154.908 219.231 148.839C213.563 141.273 213.238 140.654 212.332 135.7C211.622 131.822 211.567 131.997 211.821 137.33C212.069 142.525 212.634 143.876 216.135 147.654C221.26 153.183 221.954 155.953 219.552 161.28C217.95 164.835 217.869 165.819 219.067 167.261C221.639 170.361 226.417 172.104 232.339 172.104C235.537 172.104 238.74 172.691 239.457 173.409C242.313 176.265 240.002 184.521 236.058 185.553C234.811 185.878 234.096 186.449 234.467 186.819C234.837 187.191 236.214 186.921 237.525 186.219C239.328 185.254 240.209 185.249 241.149 186.2C242.083 187.147 241.386 188.382 238.332 191.191C235.171 194.099 233.345 194.925 230.079 194.925C227.395 194.925 225.237 195.641 224.086 196.913C221.747 199.497 221.814 200.258 224.65 203.277C227.271 206.067 226.477 206.382 221.34 204.591C212.268 201.428 214.625 189.428 224.579 188.092C229.642 187.413 231.135 185.903 230.719 181.885C230.348 178.306 227.33 177.932 221.152 180.701C216.98 182.57 216.01 182.667 214.138 181.398C212.943 180.587 212.03 179.163 212.108 178.23C212.195 177.212 210.818 176.062 208.661 175.35C205.447 174.289 204.248 174.579 197.212 178.123C190.646 181.429 188.934 181.89 186.804 180.92C183.811 179.556 183.64 178.019 185.961 173.364C188.894 167.486 187.796 165.324 180.634 162.868C174.13 160.637 171.532 158.06 173.063 155.357C175.149 151.676 181.22 146.024 183.088 146.024C184.379 146.024 185.547 144.825 186.265 142.764C186.89 140.971 187.816 139.504 188.323 139.504C188.83 139.504 189.362 137.745 189.507 135.597C189.652 133.447 190.464 129.677 191.311 127.217C192.158 124.757 192.635 122.528 192.371 122.264C191.666 121.558 188.922 128.532 188.028 133.306C187.097 138.272 186.682 137.999 184.806 131.174L183.363 125.92L183.265 130.37C183.162 135.11 180.698 138.417 177.27 138.417C174.467 138.417 169.246 132.343 167.967 127.593C165.364 117.926 174.249 109.23 182.318 113.549C184.165 114.538 184.473 114.473 183.983 113.196C183.597 112.187 184.7 110.919 187.078 109.638C189.111 108.543 190.775 107.206 190.775 106.668C190.775 105.675 190.174 105.935 185.39 108.998C183.921 109.937 180.617 110.72 178.046 110.737C174.244 110.761 172.712 111.426 169.847 114.289C166.626 117.511 166.325 118.392 166.325 124.612C166.325 130.881 166.649 131.805 170.47 136.468C174.536 141.433 174.571 141.55 172.313 142.758C169.707 144.153 165.772 150.087 165.824 152.544C165.847 153.618 166.309 153.371 167.178 151.82C168.674 149.155 174.475 144.291 174.475 145.703C174.475 146.211 173.714 147.715 172.782 149.044C171.851 150.374 171.371 151.916 171.713 152.471C172.056 153.026 171.808 153.808 171.159 154.209C170.511 154.61 170.253 155.648 170.586 156.516C172.047 160.32 162.874 166.103 155.218 166.204C150.257 166.269 148.946 166.764 145.881 169.736C143.92 171.636 141.823 173.191 141.221 173.191C140.618 173.191 138.468 171.969 136.443 170.474C132.231 167.367 129.262 167.096 123.911 169.332C120.708 170.671 120.143 170.679 120.143 169.387C120.143 168.55 120.998 167.368 122.045 166.758C123.61 165.846 123.648 165.644 122.262 165.617C119.634 165.566 117.97 167.877 117.97 171.579C117.97 174.433 117.245 175.369 113.351 177.542C102.669 183.504 89.7169 193.87 89.7169 196.458C89.7169 197.059 91.7945 195.562 94.3351 193.132C101.542 186.236 116.773 176.771 119.747 177.34C120.427 177.471 121.268 176.834 121.615 175.927C121.984 174.967 123.591 174.278 125.464 174.278C127.233 174.278 129.487 173.472 130.473 172.487C132.136 170.822 132.531 170.822 136.02 172.487C141.015 174.869 143.296 174.745 145.782 171.956C148.842 168.524 153.667 166.776 157.246 167.802C159.647 168.491 161.163 168.09 164.396 165.911C166.652 164.39 168.896 162.461 169.382 161.623C170.112 160.364 170.798 160.479 173.344 162.293C175.037 163.498 178.307 164.881 180.61 165.367C185.184 166.331 185.336 166.911 183.625 176.848C182.396 183.984 187.34 184.909 198.925 179.711C202.921 177.918 206.622 176.451 207.149 176.451C207.674 176.451 208.86 177.911 209.784 179.696C211.94 183.866 215.722 184.786 221.556 182.557C227.454 180.306 228.808 180.343 228.808 182.754C228.808 185.68 226.616 187.318 222.703 187.318C219.904 187.318 218.753 188.05 216.944 190.978C214.158 195.484 213.988 201.595 216.583 203.839C221.215 207.846 229.442 208.426 232.305 204.948C233.518 203.476 233.336 203.348 230.889 203.958C228.887 204.455 227.412 204.037 225.764 202.5C223.458 200.352 223.556 197.203 225.936 196.985C226.619 196.922 228.937 196.759 231.088 196.623C233.317 196.48 236.6 195.152 238.723 193.533C241.369 191.514 242.91 190.985 244.049 191.705C246.036 192.963 251.306 193.064 252.051 191.858C252.354 191.367 251.65 190.15 250.485 189.153C247.725 186.79 247.792 183.854 250.646 182.071C251.9 181.288 253.026 180.803 253.148 180.995C253.271 181.185 254.21 182.682 255.236 184.321C256.261 185.961 259.557 188.547 262.561 190.069C269.512 193.592 278.388 202.122 279.424 206.278C279.864 208.039 279.752 212.326 279.177 215.806C278.45 220.198 278.481 222.016 279.277 221.753C281.414 221.046 282.125 208.93 280.321 203.964C278.487 198.917 271.152 191.714 264.269 188.202C258.312 185.163 255.699 181.873 257.525 179.711C259.795 177.026 260.289 174.509 259.172 171.32C258.079 168.2 252.198 164.016 250.436 165.105C248.078 166.563 246.388 162.307 245.632 153.007C245.199 147.672 244.374 142.409 243.801 141.312C242.282 138.408 243.539 137.852 246.798 139.986C248.362 141.012 249.873 141.619 250.155 141.338C251.075 140.418 247.637 133.6 244.649 130.418C241.949 127.545 241.859 127.164 243.464 125.391C245.872 122.73 246.624 116.883 245.227 111.693C244.395 108.607 241.336 104.39 234.799 97.3268C229.711 91.8281 225.548 86.6283 225.548 85.7698C225.548 83.1052 227.539 82.8292 228.038 85.4242C228.335 86.9673 228.566 86.3653 228.66 83.8105C228.838 78.9008 230.773 78.4248 231.701 83.0639C232.139 85.258 232.733 86.0252 233.441 85.3166C235.025 83.7322 233.465 78.8932 231.132 78.1531C228.185 77.2175 225.832 78.4542 225.114 81.3143C224.468 83.8931 220.593 85.735 219.508 83.98C219.173 83.4388 219.606 82.9955 220.469 82.9955C222.389 82.9955 225.385 78.6172 224.745 76.747C224.489 76.0004 223.575 75.3886 222.714 75.3886C220.957 75.3886 219.028 71.1364 219.028 67.2645C219.028 64.0674 213.313 59.0882 209.643 59.0882C208.16 59.0882 207.235 59.5554 207.589 60.127ZM175.973 61.7364C171.451 63.7044 167.007 69.9551 170.129 69.9551C170.726 69.9551 171.215 69.2977 171.215 68.4935C171.215 65.8518 175.387 63.1883 180.407 62.6221C183.122 62.3156 185.342 61.6397 185.342 61.1203C185.342 59.6989 179.819 60.0618 175.973 61.7364ZM181.353 68.2762C177.766 69.8399 175.562 72.8023 175.562 76.0623C175.562 77.1088 174.5 79.0953 173.203 80.4765C171.906 81.8566 171.206 83.3486 171.648 83.7898C172.734 84.8776 176.408 79.8984 177.234 76.2167C178.048 72.5882 182.527 68.8684 186.081 68.8684C187.522 68.8684 189.892 70.0594 191.347 71.5145C192.803 72.9707 194.265 73.7216 194.597 73.1848C195.373 71.9296 191.255 67.7817 189.234 67.7817C188.387 67.7817 187.041 67.5546 186.246 67.2775C185.449 67.0015 183.248 67.4503 181.353 68.2762ZM91.4794 83.4986C88.7541 86.4392 86.4569 92.9452 86.4569 97.7202C86.4569 99.4057 85.6463 103.673 84.6553 107.205C83.3372 111.904 82.1636 113.94 80.2793 114.799C76.6999 116.43 75.2492 114.659 74.456 107.691C74.1007 104.567 73.5465 102.746 73.2237 103.643C68.1404 117.775 69.4379 125.188 77.5834 128.562C82.5428 130.617 91.9966 127.46 96.2161 122.341C98.021 120.152 99.4967 117.561 99.4967 116.582C99.4967 113.721 103.789 109.076 106.434 109.076C108.915 109.076 112.994 112.158 113.907 114.72C114.185 115.501 114.813 115.765 115.303 115.307C116.592 114.102 112.242 108.7 109.074 107.572C104.81 106.052 100.409 108.786 98.41 114.199C96.1052 120.44 91.8304 124.599 85.9299 126.342C79.8284 128.142 75.2004 126.617 72.8228 122.018C71.02 118.533 70.706 112.336 72.3305 112.336C72.9282 112.336 73.4172 112.814 73.4172 113.398C73.4172 113.982 74.6396 115.261 76.1338 116.24C78.6146 117.865 79.0775 117.871 81.4659 116.306C84.4781 114.333 87.173 107.023 88.2021 98.0375C89.518 86.549 95.6847 79.8234 102.187 82.7857C103.715 83.4823 106.301 86.3555 107.936 89.1712C113.549 98.8438 118.724 102.091 124.014 99.26C126.586 97.8832 135.059 82.9955 133.272 82.9955C131.89 82.9955 130.301 85.3818 129.529 88.6169C128.406 93.3267 123.641 98.2092 120.167 98.2092C116.402 98.2092 112.651 95.2621 112 91.7901C111.538 89.3309 108.567 85.2482 105.005 82.1804C104.138 81.4339 101.297 80.8221 98.6936 80.8221C95.0588 80.8221 93.3843 81.4437 91.4794 83.4986ZM145.629 82.9476C140.39 85.07 133.984 99.3111 136.199 103.907C137.273 106.132 137.389 105.964 137.455 102.084C137.536 97.4137 140.591 90.2176 144.087 86.4653C146.965 83.3769 151.965 83.3769 157.797 86.4664C161.502 88.4279 162.767 88.6365 164.861 87.6291C167.294 86.4599 167.235 86.3979 163.609 86.3044C161.517 86.2512 158.583 85.2514 157.089 84.0822C154.265 81.8729 149.456 81.3969 145.629 82.9476ZM95.9672 88.1573C94.1938 90.1503 90.8035 100.447 90.8035 103.84C90.8035 104.927 91.2925 105.816 91.8901 105.816C92.4878 105.816 92.9768 103.92 92.9768 101.602C92.9768 93.3799 98.2807 85.4394 100.784 89.9145C101.345 90.9153 102.295 91.4315 102.895 91.0609C104.184 90.2633 100.898 86.2555 98.9533 86.2555C98.2416 86.2555 96.8985 87.1108 95.9672 88.1573ZM194.851 89.0614C194.503 89.4091 191.855 90.3806 188.966 91.2207L183.712 92.7464L189.106 92.1161C194.284 91.5108 201.029 88.4289 197.174 88.4289C196.244 88.4289 195.199 88.7137 194.851 89.0614ZM173.66 93.8961C172.315 94.4373 171.215 95.3968 171.215 96.0282C171.215 96.7498 172.329 96.6161 174.204 95.6696C175.847 94.8393 177.925 93.8874 178.822 93.5538C179.972 93.1256 179.812 92.942 178.279 92.93C177.083 92.9213 175.006 93.356 173.66 93.8961ZM97.5125 96.377C96.2128 97.7604 95.1816 99.8392 95.2186 100.995C95.2848 102.998 95.3305 102.993 96.1846 100.888C97.4473 97.7713 100.264 95.6805 102.199 96.4238C103.206 96.8106 103.843 96.4368 103.843 95.4588C103.843 93.0224 100.163 93.557 97.5125 96.377ZM146.766 95.4533C144.973 96.2738 143.926 96.9856 144.441 97.0345C144.955 97.0823 144.287 98.0049 142.955 99.084L140.533 101.044L142.735 105.604C145.084 110.464 144.833 110.787 140.045 109.058L136.986 107.954L139.703 110.12C142.371 112.25 148.396 113.178 148.396 111.46C148.396 110.979 147.173 108.928 145.679 106.903C144.185 104.877 142.963 102.538 142.963 101.704C142.963 99.3763 147.506 96.1119 150.803 96.0717C154.24 96.0293 155.482 98.0038 155.907 104.186C156.291 109.792 157.587 111.25 162.183 111.25C167.374 111.25 169.827 109.664 170.686 105.752C171.09 103.913 171.986 102.261 172.676 102.081C180.098 100.139 196.294 94.434 195.312 94.1069C194.612 93.8733 190.248 94.9024 185.616 96.3933C180.982 97.8843 175.902 99.3872 174.325 99.7338C172.275 100.184 170.98 101.562 169.772 104.578C168.031 108.929 166.32 110.163 162.023 110.163C158.73 110.163 157.509 108.369 157.221 103.1C156.942 97.9853 154.544 93.8429 151.902 93.9113C150.87 93.9385 148.559 94.6318 146.766 95.4533ZM214.719 95.9641C213.006 99.1655 213.372 101.469 215.593 101.469C217.69 101.469 220.589 96.5965 219.521 94.8676C218.469 93.1658 215.904 93.7527 214.719 95.9641ZM217.941 96.9899C217.941 97.5137 217.208 98.5515 216.311 99.2959C214.542 100.764 214.32 100.413 215.341 97.755C216.039 95.9347 217.941 95.3751 217.941 96.9899ZM186.972 101.974C185.179 102.794 184.473 103.506 185.406 103.555C186.337 103.602 188.049 102.924 189.209 102.047C191.829 100.065 191.185 100.045 186.972 101.974ZM189.145 111.25C188.776 111.847 188.992 112.336 189.624 112.336C190.257 112.336 190.775 111.847 190.775 111.25C190.775 110.652 190.56 110.163 190.296 110.163C190.032 110.163 189.514 110.652 189.145 111.25ZM128.572 116.173C126.933 117.584 126.006 118.994 126.513 119.307C127.485 119.908 132.794 114.843 132.01 114.063C131.758 113.813 130.212 114.762 128.572 116.173ZM106.797 116.411C109.325 123.166 112.436 125.198 117.844 123.626C120.502 122.852 120.404 122.759 116.356 122.186C113.003 121.711 111.532 120.786 109.836 118.084C107.477 114.324 105.636 113.311 106.797 116.411ZM172.865 117.108C171.093 118.88 170.399 120.469 170.867 121.687C171.504 123.352 171.671 123.312 172.407 121.32C172.862 120.093 174.282 118.354 175.564 117.456C177 116.45 177.45 115.549 176.738 115.108C176.101 114.715 174.359 115.615 172.865 117.108ZM155.521 118.012C154.591 119.34 153.825 121.173 153.818 122.087C153.782 127.742 143.5 141.677 139.364 141.677C136.933 141.677 133.206 138.359 131.049 134.274C129.454 131.257 128.92 130.818 128.884 132.5C128.808 136.052 135.63 142.766 139.306 142.754C145.148 142.737 154.822 130.738 154.892 123.426C154.905 122.053 156.116 119.731 157.583 118.264C159.32 116.527 159.72 115.596 158.731 115.596C157.895 115.596 156.451 116.683 155.521 118.012ZM188.602 117.29C188.602 118.222 189.091 118.683 189.688 118.313C190.286 117.944 190.775 117.182 190.775 116.619C190.775 116.056 190.286 115.596 189.688 115.596C189.091 115.596 188.602 116.359 188.602 117.29ZM75.6589 119.051C75.5742 121.3 78.4288 124.29 80.6618 124.29C82.7536 124.29 88.6302 120.866 88.6302 119.648C88.6302 119.144 87.5436 119.494 86.2146 120.425C82.5645 122.982 77.8931 122.611 76.7108 119.671C76.0077 117.922 75.7089 117.746 75.6589 119.051ZM134.671 121.393C131.34 124.205 129.162 128.637 131.112 128.637C131.653 128.637 132.096 127.979 132.096 127.175C132.096 126.371 133.074 124.828 134.269 123.747C136.369 121.847 136.443 121.848 136.443 123.795C136.443 125.244 136.774 125.48 137.622 124.632C138.269 123.985 138.637 122.344 138.437 120.987L138.073 118.522L134.671 121.393ZM146.222 122.027C146.222 126.701 145.234 128.53 141.724 130.346C138.745 131.886 138.527 131.845 137.691 129.588C136.946 127.571 136.702 127.478 136.123 128.989C135.42 130.822 138.098 132.983 141.072 132.983C143.879 132.983 147.301 128.075 147.751 123.402C147.993 120.903 147.747 118.856 147.206 118.856C146.665 118.856 146.222 120.283 146.222 122.027ZM184.89 121.726C184.317 123.218 184.477 123.286 185.86 122.137C187.745 120.572 187.942 119.943 186.545 119.943C186.011 119.943 185.267 120.746 184.89 121.726ZM200.011 123.203C199.642 123.801 199.829 124.29 200.427 124.29C201.024 124.29 201.815 123.801 202.185 123.203C202.554 122.606 202.367 122.117 201.77 122.117C201.172 122.117 200.381 122.606 200.011 123.203ZM103.835 126.477C92.7443 127.769 82.1103 138.719 82.1103 148.846C82.1103 150.108 83.31 152.434 84.7748 154.015C86.9785 156.393 88.389 156.891 92.9246 156.891C98.5654 156.891 99.6271 155.993 96.7801 153.631C95.8836 152.886 95.1501 151.359 95.1501 150.238C95.1501 149.115 94.6459 148.197 94.0297 148.197C92.2085 148.197 91.5381 151.354 92.9888 153.101C94.1123 154.455 93.907 154.717 91.7217 154.717C84.4727 154.717 81.8463 146.694 86.7286 139.463C89.8147 134.893 98.1579 128.85 102.613 127.959C105.883 127.305 106.019 127.422 106.059 130.946L106.101 134.613L107.716 130.892C108.605 128.845 109.196 126.886 109.032 126.539C108.868 126.192 106.528 126.164 103.835 126.477ZM204.901 127.007C204.901 127.903 205.094 128.637 205.328 128.637C205.563 128.637 206.037 127.903 206.381 127.007C206.725 126.11 206.532 125.377 205.954 125.377C205.375 125.377 204.901 126.11 204.901 127.007ZM156.053 129.652C154.805 131.406 153.041 134.943 152.135 137.513C151.229 140.082 149.732 143.335 148.811 144.742C147.889 146.149 147.424 147.588 147.776 147.941C148.818 148.983 151.451 144.791 153.417 138.96C154.426 135.972 156.455 131.937 157.928 129.995C159.401 128.053 160.093 126.463 159.465 126.463C158.837 126.463 157.302 127.898 156.053 129.652ZM195.291 129.452C191.917 137.988 192.752 141.684 199.503 148.106C204.624 152.978 204.58 154.914 199.145 163.76C195.477 169.731 196.216 172.353 200.959 170.192C202.41 169.531 204.623 169.26 205.878 169.588C207.301 169.959 208.161 169.671 208.161 168.824C208.161 167.835 206.821 167.646 203.271 168.133C198.603 168.773 196.558 167.603 200.021 166.274C200.923 165.928 201.553 165.265 201.421 164.8C201.288 164.335 201.757 162.915 202.463 161.645C203.168 160.376 204.055 157.398 204.434 155.029C205.08 150.994 204.808 150.403 200.122 145.65C194.602 140.05 193.905 136.913 196.696 130.232C197.562 128.16 197.866 126.463 197.371 126.463C196.876 126.463 195.941 127.809 195.291 129.452ZM229.316 129.833C228.903 131.133 229.159 132.653 229.908 133.365C230.928 134.331 231.058 134.06 230.486 132.168C229.682 129.508 230.867 128.957 232.937 131.027C233.662 131.752 234.241 131.849 234.241 131.245C234.241 129.982 232 127.55 230.836 127.55C230.398 127.55 229.715 128.577 229.316 129.833ZM203.052 137.451C203.188 140.804 203.893 144.266 204.62 145.141C207.355 148.436 209.367 154.96 208.7 158.362C208.198 160.919 208.316 161.37 209.165 160.151C211.101 157.373 210.456 151.587 207.618 146.254C206.124 143.447 204.894 139.68 204.885 137.882C204.875 136.085 204.404 133.88 203.836 132.983C203.128 131.864 202.882 133.263 203.052 137.451ZM225.719 134.07C225.719 135.564 225.966 136.176 226.267 135.429C226.569 134.682 226.569 133.459 226.267 132.712C225.966 131.965 225.719 132.576 225.719 134.07ZM114.793 136.327C111.56 139.561 110.565 141.677 112.279 141.677C112.734 141.677 113.59 140.577 114.181 139.232C114.775 137.877 116.828 136.323 118.785 135.747C122.669 134.604 123.515 132.983 120.227 132.983C119.077 132.983 116.632 134.489 114.793 136.327ZM90.7742 141.949C88.377 147.231 88.1847 149.157 89.8277 151.457C90.7513 152.752 90.8741 152.554 90.4199 150.502C89.631 146.943 92.7932 139.518 95.5771 138.393C97.8222 137.486 97.8178 137.467 95.3685 137.399C93.4549 137.347 92.3802 138.409 90.7742 141.949ZM157.8 140.727C152.326 153.633 151.206 155.601 148.395 157.262C141.372 161.411 134.477 158.127 132.162 149.531C130.66 143.949 124.767 139.12 120.704 140.139C112.511 142.196 109.535 158.134 117.632 156.585C119.013 156.321 120.143 156.442 120.143 156.852C120.143 158.721 112.005 164.498 109.373 164.498C106.977 164.498 104.371 158.431 103.843 151.622C103.259 144.088 101.495 141.682 97.7428 143.303C95.7706 144.154 95.776 144.205 97.8667 144.653C100.955 145.317 102.814 148.131 102.085 151.038C101.217 154.496 104.664 164.279 107.235 165.655C111.303 167.833 119.831 162.889 122.303 156.922C123.944 152.961 123.144 151.561 120.66 154.045C118.559 156.146 117.74 156.227 116.014 154.5C114.109 152.595 114.421 147.693 116.611 145.103C118.781 142.539 124.49 140.759 124.49 142.646C124.49 143.308 125.231 143.85 126.137 143.85C127.043 143.85 128.564 145.685 129.517 147.926C130.47 150.167 131.984 153.548 132.881 155.44C134.714 159.305 134.068 161.238 130.945 161.238C129.785 161.238 128.836 161.727 128.836 162.324C128.836 163.761 131.686 163.707 134.468 162.218C135.695 161.561 139.321 160.95 142.527 160.859C147.461 160.719 148.839 160.193 151.513 157.434C153.281 155.61 155.922 150.624 157.509 146.113C160.406 137.882 160.611 134.102 157.8 140.727ZM164.819 142.309C162.645 145.073 160.882 149.158 161.608 149.751C161.811 149.917 163.532 147.68 165.429 144.778C169.046 139.245 168.613 137.487 164.819 142.309ZM188.602 145.477C188.602 146.373 186.859 149.034 184.728 151.393C181.435 155.037 181.033 156.017 182.049 157.917C182.707 159.146 184.083 160.136 185.108 160.118C186.845 160.087 186.842 160.01 185.07 158.977C182.369 157.404 182.703 155.57 186.321 152.104C189.369 149.183 191.448 143.85 189.537 143.85C189.023 143.85 188.602 144.583 188.602 145.477ZM223.955 149.012C224.402 150.059 224.999 152.259 225.281 153.902C225.564 155.545 226.228 156.891 226.757 156.891C228.113 156.891 227.955 153.16 226.459 149.878C225.063 146.813 222.659 145.981 223.955 149.012ZM160.349 153.483C160.349 153.999 159.06 155.711 157.484 157.286C155.909 158.862 155.089 160.151 155.664 160.151C156.726 160.151 160.479 156.379 161.881 153.902C162.305 153.156 162.132 152.544 161.5 152.544C160.867 152.544 160.349 152.967 160.349 153.483ZM163.143 158.598C161.992 159.44 161.261 160.338 161.517 160.594C161.772 160.851 162.924 160.371 164.075 159.53C165.226 158.688 165.957 157.791 165.701 157.534C165.445 157.278 164.293 157.757 163.143 158.598ZM189.705 160.733C189.735 162.604 191.721 165.001 192.553 164.168C192.998 163.724 192.535 162.533 191.525 161.522C190.515 160.512 189.696 160.156 189.705 160.733ZM124.954 162.845C123.115 164.236 123.083 164.432 124.697 164.463C125.708 164.482 126.857 163.976 127.251 163.338C128.434 161.423 127.187 161.155 124.954 162.845ZM212.027 171.472C214.303 173.137 215.334 172.954 214.182 171.091C213.789 170.453 212.669 169.931 211.693 169.931C210.21 169.931 210.264 170.183 212.027 171.472ZM251.677 174.371C252.344 175.618 253.155 176.372 253.48 176.048C254.375 175.153 252.941 172.104 251.623 172.104C250.82 172.104 250.836 172.799 251.677 174.371ZM85.6028 203.347C80.9052 214.33 81.4323 216.005 93.3484 227.981C104.667 239.355 109.074 242 125.05 247.003C135.413 250.248 136.159 250.691 141.68 256.894C145.368 261.035 146.847 263.387 145.765 263.387C144.832 263.387 143.457 262.409 142.71 261.214C141.076 258.597 136.214 258.326 134.21 260.742C133.433 261.678 131.295 263.202 129.459 264.129C127.622 265.056 125.122 266.724 123.903 267.836C121.043 270.444 116.759 269.36 107.05 263.574C103.195 261.277 93.9276 256.071 86.4569 252.008C78.9862 247.945 70.756 243.209 68.1665 241.483C61.3771 236.958 55.6961 234.273 54.1064 234.838C53.3468 235.109 51.9874 236.756 51.0855 238.501C49.0307 242.475 50.5096 246.103 53.8304 245.235C57.5108 244.273 58.0053 248.134 54.5432 250.798C46.8715 256.698 43.1356 260.415 41.9164 263.356C40.758 266.154 40.8928 267.055 42.965 270.408C45.6403 274.737 47.794 275.288 49.5109 272.08C50.151 270.885 51.2061 269.907 51.8559 269.907C52.6188 269.907 52.547 270.497 51.6538 271.574C49.8087 273.797 51.6429 277.242 56.4122 280.511C61.3347 283.883 63.5504 283.654 64.3437 279.687C64.7023 277.894 65.4238 276.427 65.9465 276.427C66.9973 276.427 67.2211 277.699 66.9386 282.054C66.6984 285.75 70.4615 288.209 73.0575 286.054C74.8722 284.549 80.4086 273.212 80.0696 271.696C79.6534 269.835 81.2225 266.594 82.4646 266.747C85.2605 267.093 86.4569 266.572 86.4569 265.009C86.4569 263.837 90.785 265.541 101.731 271.024C114.66 277.501 116.906 278.991 116.357 280.721C116 281.844 116.217 283.079 116.838 283.464C117.461 283.848 117.97 283.44 117.97 282.557C117.97 281.674 118.23 280.273 118.548 279.444C118.954 278.387 115.489 276.18 106.949 272.054C100.251 268.819 90.822 263.59 85.9962 260.433C81.1704 257.276 76.8553 254.693 76.4065 254.693C74.4082 254.693 75.948 256.518 79.8066 258.721C82.1158 260.04 84.2662 262.118 84.5857 263.339C85.3475 266.25 84.0315 266.141 78.3723 262.825C73.8486 260.172 73.6312 260.149 71.3047 262.033L68.9043 263.977L71.5862 266.67C73.0607 268.152 75.3242 270.097 76.6152 270.994L78.9623 272.624L75.5644 278.872C71.9795 285.466 71.3938 285.923 69.2596 283.789C68.2078 282.737 68.4175 282.087 70.2561 280.699C73.0368 278.602 72.3262 274.744 68.963 273.677C66.3072 272.834 64.0731 274.543 63.1799 278.102C62.7452 279.833 61.739 280.774 60.3231 280.774C57.4619 280.774 56.5991 278.319 58.3486 275.154C60.0405 272.091 59.733 269.82 57.3783 268.005C54.7301 265.965 50.8225 266.37 49.5109 268.82C48.069 271.514 46.251 271.649 46.251 269.063C46.251 265.983 49.0165 262.84 55.5299 258.516C58.8659 256.302 62.0421 253.313 62.5898 251.876C63.8177 248.644 63.934 248.645 68.7946 251.948C73.3324 255.031 75.0102 254.722 71.1265 251.517C68.4784 249.332 64.3687 247.133 59.03 245.047C56.322 243.988 56.1656 243.634 57.3022 241.138C57.99 239.628 58.868 238.393 59.2527 238.393C59.6374 238.393 62.3703 239.93 65.326 241.807C68.2817 243.686 74.857 247.444 79.937 250.159C85.0171 252.874 93.9059 257.911 99.6912 261.353C118.827 272.739 121.43 273.521 125.527 269.124C126.692 267.873 129.337 266.292 131.404 265.609C133.472 264.927 135.436 263.659 135.769 262.791C136.683 260.409 140.896 260.842 141.561 263.387C141.892 264.653 143.043 265.56 144.32 265.56C147.987 265.56 153.775 269.888 156.036 274.32C158.946 280.024 158.908 282.329 155.932 280.736C154.138 279.776 153.946 279.224 154.979 277.981C157.12 275.4 154.384 276.239 151.845 278.942C148.939 282.036 148.78 287.178 151.483 290.679C154.179 294.172 155.133 298.161 153.273 298.161C150.159 298.161 148.212 296.628 146.121 292.529L143.939 288.252L137.202 288.52C133.498 288.667 129.891 289.216 129.188 289.737C128.485 290.26 127.263 290.561 126.472 290.407C123.655 289.86 114.867 291.771 113.693 293.187C112.783 294.284 113.099 295.02 115.023 296.28C117.747 298.064 120.885 305.862 119.671 307.825C118.552 309.637 113.948 309.269 113.196 307.309C112.833 306.364 112.536 304.367 112.536 302.872C112.536 301.178 112.025 300.326 111.178 300.611C110.357 300.888 109.783 303.177 109.726 306.407C109.658 310.302 109.18 311.833 107.956 312.071C106.723 312.311 106.084 311.091 105.538 307.452C104.527 300.709 102.156 300.953 101.235 307.895C100.524 313.258 97.795 317.576 96.1824 315.89C95.7173 315.403 96.0661 310.848 96.9572 305.768C98.121 299.137 98.2536 296.008 97.4299 294.679C95.8151 292.077 96.917 291.66 108.465 290.495C113.991 289.937 123.548 288.432 129.702 287.149C140.162 284.968 141.002 284.596 142.597 281.437C144.81 277.055 148.391 273.167 150.215 273.167C152.728 273.167 151.767 271.227 149.211 271.141C147.865 271.095 143.446 270.741 139.387 270.354C133.221 269.764 131.664 269.961 129.901 271.557C127.26 273.946 125.939 280.452 127.566 283.057C128.535 284.609 128.404 285.107 126.904 285.561C122.225 286.98 109.014 288.663 100.784 288.889C92.2205 289.124 91.5902 289.312 88.6922 292.485C86.9981 294.34 83.6588 296.365 81.2041 297.026C78.7678 297.682 76.0545 298.939 75.1732 299.819C74.293 300.701 72.8967 301.421 72.0697 301.421C71.2428 301.421 69.4161 302.494 68.01 303.803C65.8943 305.776 64.0318 306.218 57.2098 306.374C51.9331 306.496 47.881 306.014 45.9478 305.035C44.2863 304.193 42.4923 303.775 41.9598 304.104C40.3233 305.115 36.72 299.483 33.2558 290.499C29.4265 280.569 29.0614 275.118 32.0138 271.949C33.1482 270.731 34.3055 268.185 34.5869 266.289C35.2292 261.946 32.531 252.608 30.3957 251.789C27.9627 250.854 24.366 254.678 24.7398 257.8C25.1494 261.21 22.6447 262.197 22.1242 258.832C21.9112 257.451 22.8816 254.451 24.2812 252.162C26.7664 248.101 26.8609 246.146 24.9071 239.208C24.2877 237.007 20.1215 236.675 16.6236 238.547C14.6687 239.594 14.0613 239.423 12.7584 237.461C10.6992 234.359 9.74839 234.512 6.06792 238.543C3.43172 241.429 3.1155 242.381 4.01089 244.736C4.86282 246.976 4.51727 248.531 2.24509 252.707C-0.359598 257.492 -0.474781 258.246 0.765082 262.385C2.39614 267.829 4.16085 268.674 8.51939 266.098C11.7935 264.165 11.8663 264.172 13.8776 266.656C16.0259 269.309 16.1107 272.167 14.0613 272.85C13.3908 273.074 12.5802 272.258 12.2618 271.038C11.5294 268.239 8.18144 268.165 4.83566 270.875L2.29834 272.929L6.07335 280.32C11.086 290.135 12.3759 290.813 17.4864 286.326C19.7075 284.375 21.9047 283.184 22.3687 283.679C22.8316 284.173 25.4819 289.564 28.2572 295.659C32.0931 304.084 33.0504 307.209 32.2507 308.699C30.311 312.313 27.54 321.494 27.3868 324.809C27.3032 326.615 26.1339 329.493 24.7897 331.204C23.4456 332.915 22.3448 334.923 22.3448 335.665C22.3448 337.986 25.433 339.734 28.2735 339.022C30.5316 338.455 31.264 338.92 32.7853 341.889C35.2368 346.672 35.9844 347.027 43.6735 347.046C49.2751 347.06 50.5769 346.695 51.8711 344.746C53.362 342.499 53.5185 342.484 56.9751 344.272C59.507 345.581 62.7246 346.045 68.073 345.871C72.2153 345.738 75.9045 345.928 76.2718 346.294C77.579 347.601 75.61 352.082 71.7426 356.6C69.5824 359.125 67.3982 361.19 66.8886 361.19C65.7672 361.19 67.42 355.028 69.0782 353.031C69.8562 352.093 69.8888 351.372 69.1738 350.929C67.7318 350.038 62.2204 351.426 61.2087 352.935C60.7512 353.617 60.4035 353.083 60.3937 351.681C60.3731 348.591 57.9901 348.52 53.2262 351.464C50.879 352.914 49.8391 354.26 50.2455 355.319C50.5889 356.215 50.1379 357.535 49.2415 358.253C48.3461 358.972 46.0402 362.572 44.1168 366.252L40.62 372.945L42.8313 375.157C44.7319 377.057 45.6523 379.992 46.5955 387.154C46.7041 387.986 47.6495 389.207 48.696 389.865C51.0779 391.365 53.8423 389.835 55.745 385.964C56.485 384.46 59.6635 380.337 62.8082 376.803C65.9541 373.268 70.2007 368.188 72.2469 365.511C79.4491 356.09 83.4545 352.496 86.7557 352.496C93.2952 352.496 103.826 343.733 103.839 338.281C103.841 337.335 105.066 335.909 106.56 335.109C108.054 334.309 109.276 333.288 109.276 332.839C109.276 332.391 111.716 331.213 114.697 330.223C117.678 329.233 120.409 327.951 120.765 327.375C121.121 326.799 123.327 325.119 125.667 323.641C128.008 322.163 129.923 320.304 129.923 319.509C129.923 318.714 131.634 317.142 133.726 316.016C135.843 314.876 137.529 313.124 137.529 312.067C137.529 311.02 138.732 309.376 140.204 308.413C141.675 307.449 143.174 305.726 143.537 304.582C144.355 302.007 146.772 300.665 151.485 300.173C154.855 299.821 155.224 300.102 156.581 304.049C157.386 306.389 159.309 309.567 160.855 311.111C163.375 313.627 164.399 313.89 170.719 313.65C183.16 313.175 198.593 303.936 207.723 291.498C209.859 288.587 212.236 286.208 213.007 286.208C213.777 286.208 217.421 283.518 221.105 280.231C224.789 276.943 227.081 274.254 226.199 274.254C225.315 274.254 222.333 276.21 219.571 278.601C216.809 280.991 214.342 282.947 214.089 282.947C213.837 282.947 214.649 280.992 215.894 278.604C217.18 276.134 218.659 274.57 219.321 274.979C220.048 275.428 220.23 275.034 219.805 273.929C219.276 272.548 220.01 272.017 223.152 271.507C225.366 271.147 229.525 270.395 232.392 269.836C239.224 268.505 249.072 268.54 251.62 269.903C253.527 270.923 253.444 271.3 250.19 276.477C248.291 279.497 243.803 285.421 240.217 289.64C230.623 300.93 229.72 302.794 237.404 295.444C241.153 291.858 246.505 285.501 249.296 281.317L254.371 273.711L259.202 274.028C261.859 274.202 264.25 274.561 264.516 274.827C265.344 275.656 261.165 289.696 258.031 296.61C252.141 309.606 250.16 316.813 250.076 325.546C250.029 330.594 250.391 333.52 250.989 332.921C251.535 332.376 252.075 328.366 252.189 324.01C252.396 316.094 254.075 310.285 260.857 294.026C262.429 290.258 264.29 284.756 264.992 281.801C265.924 277.875 266.784 276.427 268.184 276.427C270.541 276.427 270.606 275.687 267.462 284.687C262.738 298.208 262.043 310.539 265.871 312.904C266.86 313.515 266.96 313.188 266.253 311.651C262.984 304.54 269.53 277.686 275.562 273.46C276.748 272.628 278.462 270.511 279.37 268.754C280.279 266.998 281.499 265.56 282.081 265.56C283.746 265.56 283.35 269.717 280.423 282.947C277.748 295.046 277.105 302.868 278.391 307.67C279.623 312.268 280.687 310.124 279.727 304.979C278.954 300.842 279.401 296.775 282.024 284.06C283.815 275.38 285.165 267.351 285.025 266.221C284.885 265.09 285.312 263.972 285.975 263.736C287.312 263.261 288.573 270.455 288.573 278.555C288.573 285.346 291.265 294.059 294.154 296.625C295.443 297.769 296.277 298.216 296.009 297.618C295.742 297.02 294.638 294.583 293.556 292.202C292.402 289.658 290.988 282.113 290.127 273.909C289.322 266.231 288.351 258.968 287.972 257.771C287.523 256.357 288.047 254.772 289.47 253.243C292.85 249.607 293.401 244.03 290.864 239.114C289.68 236.823 288.978 234.255 289.302 233.409C290.302 230.803 288.828 231.685 284.537 236.256C281.645 239.338 279.213 240.833 276.348 241.289C273.157 241.796 272.273 241.582 272.273 240.302C272.273 237.303 281.277 226.464 286.13 223.619C294.844 218.513 299.206 222.194 300.536 235.778C301.513 245.754 305.891 255.092 311.301 258.738C315.295 261.43 316.826 261.814 316.826 260.127C316.826 259.529 316.188 259.04 315.409 259.04C312.868 259.04 307.047 251.953 305.085 246.469C304.03 243.521 303.033 238.095 302.87 234.411C302.609 228.504 302.834 227.63 304.77 227.015C307.017 226.302 311.393 227.989 311.393 229.569C311.393 230.054 310.415 231.335 309.219 232.416C308.024 233.497 307.046 234.872 307.046 235.47C307.046 236.067 307.901 235.806 308.948 234.889C312.45 231.817 317.768 229.699 321.933 229.716C326.342 229.734 330.354 231.616 328.018 232.572C325.71 233.515 321.04 237.537 321.602 238.097C321.901 238.396 323.896 237.558 326.036 236.236C328.876 234.481 330.304 234.143 331.319 234.986C332.341 235.835 333.195 235.574 334.537 234.007C338.198 229.731 352.545 232.49 361.297 239.153C362.238 239.87 366.008 242.639 369.673 245.305C378.916 252.031 381.727 257.955 383.102 273.599C383.808 281.637 383.762 287.043 382.958 290.794C382.313 293.802 382.045 297.87 382.365 299.833C382.879 303.005 382.62 303.482 380.039 304.125C378.442 304.523 375.668 305.497 373.875 306.29C372.082 307.083 367.804 308.974 364.367 310.493C360.93 312.012 358.118 313.497 358.118 313.793C358.118 314.356 368.713 310.792 378.505 306.934C389.238 302.705 393.678 304.414 392.352 312.265C391.571 316.889 387.745 321.579 381.97 324.99C380.208 326.032 378.765 327.529 378.765 328.318C378.765 330.48 382.352 328.249 388.523 322.25C392.521 318.363 393.914 316.118 394.483 312.641C395.396 307.082 393.866 303.861 389.871 302.934C385.149 301.837 384.384 300.082 385.588 293.098C386.843 285.812 385.063 265.025 382.581 257.99C380.385 251.767 377.288 248.146 368.673 241.728C355.948 232.249 347.348 229.03 337.897 230.21C333.598 230.748 331.325 230.473 328.657 229.093C326.084 227.762 323.561 227.424 319.405 227.853C315.385 228.268 313.337 228.016 312.498 227.004C310.686 224.822 306.201 224.06 303.544 225.482C301.669 226.486 301.072 226.447 300.689 225.298C299.633 222.128 295.116 218.832 291.829 218.832C286.887 218.832 282.881 221.32 277.297 227.857C272.95 232.944 271.913 233.617 269.053 233.197C263.511 232.383 260.123 233.96 254.226 240.097C251.108 243.343 248.142 246 247.638 246C247.134 246 246.895 243.824 247.106 241.165C247.426 237.139 247.027 235.867 244.718 233.558C241.324 230.163 234.141 229.874 226.634 232.829L221.744 234.755L215.559 230.484C212.027 228.044 206.432 225.442 202.519 224.415C195.584 222.597 193.771 221.341 184.644 212.036C177.512 204.765 168.435 198.896 166.23 200.129C164.817 200.92 165.168 201.37 168.128 202.563C172.656 204.388 183.168 212.408 183.168 214.037C183.168 214.862 180.626 215.082 175.165 214.732C169.898 214.394 166.905 214.636 166.408 215.439C165.882 216.288 167.61 216.659 172.102 216.659C182.002 216.659 185.104 217.588 186.845 221.078C188.328 224.05 188.278 224.164 185.228 224.834C183.498 225.215 182.082 225.942 182.082 226.45C182.082 226.959 183.545 226.954 185.335 226.441C192.13 224.492 200.76 225.344 207.682 228.645C215.02 232.146 219.492 236.186 216.99 237.057C214.964 237.764 211.108 241.702 211.783 242.378C212.082 242.677 213.346 241.902 214.591 240.657C215.835 239.412 217.811 238.393 218.98 238.393C220.148 238.393 222.869 237.195 225.025 235.733C230.343 232.124 237.311 231.157 241.689 233.42C245.832 235.563 246.748 238.705 244.886 244.389C243.663 248.12 243.031 248.717 240.303 248.717C238.454 248.717 236.914 248.038 236.6 247.086C236.135 245.68 236.312 245.664 237.894 246.97C240.304 248.96 240.976 248.165 239.077 245.566C237.634 243.594 237.364 243.678 232.646 247.543C229.938 249.763 227.721 252.061 227.721 252.65C227.721 253.239 225.099 257.745 221.893 262.663C218.688 267.58 215.692 272.812 215.235 274.288C213.553 279.721 207.507 289.911 203.713 293.709C190.978 306.453 183.971 310.504 172.483 311.767C165.964 312.483 165.438 312.365 162.471 309.523C160.749 307.872 159.555 306.174 159.817 305.75C160.079 305.325 159.329 302.979 158.148 300.535C155.559 295.175 155.551 292.463 158.111 286.751L160.06 282.404L161.745 286.208C163.149 289.373 163.447 289.597 163.52 287.543C163.739 281.451 151.355 262.549 142.58 255.582C137.836 251.816 142.132 252.372 151.129 256.689C156.252 259.148 160.152 260.688 159.797 260.113C158.148 257.446 147.906 252.87 130.336 246.952C119.802 243.404 110.278 240.016 109.173 239.424C104.798 237.083 93.8592 227.172 91.1784 223.119C89.618 220.761 87.7283 218.832 86.9796 218.832C84.451 218.832 84.4607 212.017 86.9991 204.977C89.8635 197.031 88.8236 195.817 85.6028 203.347ZM191.862 221.665C191.862 222.498 191.373 223.179 190.775 223.179C190.177 223.179 189.688 222.975 189.688 222.725C189.688 222.475 189.389 221.492 189.024 220.539C188.538 219.271 188.829 218.988 190.111 219.48C191.074 219.85 191.862 220.833 191.862 221.665ZM269.333 239.021C268.881 241.801 269.17 242.868 270.513 243.383C273.522 244.538 279.643 242.798 283.25 239.764L286.682 236.875L288.714 239.384C291.64 242.997 291.309 248.424 287.92 252.453C286.364 254.301 285.372 256.539 285.712 257.426C286.655 259.883 285.304 262.357 282.422 263.453C280.994 263.997 278.804 266.172 277.556 268.288C276.307 270.405 274.393 272.614 273.302 273.198C270.818 274.528 260.572 272.275 254.112 268.979C248.639 266.187 246.319 266.124 232.039 268.387C226 269.343 220.787 269.855 220.457 269.525C219.531 268.599 229.1 253.654 230.963 253.117C231.87 252.855 235.419 252.142 238.851 251.532C245.949 250.271 249.778 247.79 255.984 240.429C260.206 235.422 263.487 233.939 268.114 234.946C269.529 235.255 269.798 236.154 269.333 239.021ZM56.0145 238.185C55.9743 239.974 53.9988 241.869 52.8893 241.182C52.0265 240.65 52.007 239.82 52.822 238.296C53.851 236.375 56.0558 236.298 56.0145 238.185ZM10.3917 238.329C10.3917 239.611 8.27272 240.983 7.4936 240.204C6.71556 239.425 8.0869 237.306 9.36915 237.306C9.93203 237.306 10.3917 237.766 10.3917 238.329ZM19.0849 240.095C19.0849 241.599 16.8235 244.714 15.312 245.295C13.1137 246.138 13.1452 243.402 15.3587 241.187C17.0463 239.5 19.0849 238.903 19.0849 240.095ZM23.7868 244.556C24.2703 247.147 23.7672 248.976 21.7569 251.939C18.6806 256.472 18.4579 258.725 20.6594 263.027C21.5255 264.719 22.523 267.052 22.8772 268.211C23.4706 270.154 23.7846 270.055 26.8805 266.96C29.9861 263.854 30.1458 263.336 29.0081 260.071C26.4936 252.859 28.8647 250.742 31.7432 257.63C33.7633 262.464 33.1135 267.764 30.0165 271.7C28.7853 273.266 27.7867 276.071 27.7976 277.932C27.8367 284.508 39.0172 307.941 42.1163 307.941C42.6683 307.941 42.7661 307.37 42.3336 306.67C41.7708 305.759 42.137 305.668 43.6278 306.348C44.7721 306.871 49.3751 307.48 53.8575 307.701C58.3399 307.923 62.3388 308.435 62.7452 308.838C63.6819 309.77 61.815 326.578 60.6806 327.418C60.2155 327.763 59.6711 329.023 59.4711 330.219C58.9387 333.415 57.3098 334.702 56.4937 332.574C56.1112 331.577 54.9322 330.762 53.8738 330.762C51.4093 330.762 49.2273 328.143 49.6924 325.743C50.2803 322.711 52.634 322.774 53.4033 325.843C54.4715 330.094 56.5274 328.523 56.9175 323.157C57.475 315.483 56.5035 313.501 51.0366 311.157C46.5998 309.255 45.8066 309.202 43.0508 310.627C37.246 313.629 33.3014 317.764 32.5821 321.602C31.8073 325.731 30.4892 327.212 29.6166 324.935C28.8581 322.961 34.3196 307.826 35.5215 308.57C36.0441 308.892 36.4712 308.679 36.4712 308.096C36.4712 307.513 36.1039 306.873 35.6562 306.673C34.8401 306.311 26.6653 289.388 24.5887 283.762C23.1826 279.955 22.2057 280.008 17.4897 284.149C15.375 286.005 13.0094 287.28 12.2314 286.981C10.6644 286.38 5.26706 276.816 6.0777 276.077C6.35914 275.821 7.65225 275.284 8.95188 274.885C10.8535 274.301 11.3838 274.645 11.6685 276.651C12.1955 280.369 15.889 280.234 18.9012 276.388L21.4342 273.153L19.3543 266.912C16.8572 259.418 15.1056 258.771 9.60169 263.308C7.37298 265.144 5.22034 266.647 4.81719 266.647C4.11739 266.647 1.69851 260.701 1.69851 258.981C1.69851 258.529 3.89897 256.87 6.58842 255.294C9.27787 253.718 11.4783 251.96 11.4783 251.388C11.4783 249.831 10.4917 250.11 7.40883 252.535C5.87884 253.739 4.34232 254.439 3.99351 254.091C3.64578 253.743 4.57595 252.535 6.0614 251.407C8.4618 249.584 8.60306 249.099 7.33168 247.035C6.09834 245.032 6.17223 244.509 7.87501 243.218C10.6959 241.079 11.1284 241.263 11.8587 244.913C12.2194 246.719 13.2061 248.173 14.0711 248.173C15.8075 248.173 21.2581 242.176 21.2581 240.265C21.2581 237.901 23.1413 241.096 23.7868 244.556ZM235.871 249.26C236.24 249.858 236.024 250.347 235.392 250.347C234.759 250.347 234.241 249.858 234.241 249.26C234.241 248.662 234.456 248.173 234.72 248.173C234.984 248.173 235.501 248.662 235.871 249.26ZM61.4641 250.347C61.4641 250.944 60.9751 251.433 60.3774 251.433C59.7797 251.433 59.2908 250.944 59.2908 250.347C59.2908 249.749 59.7797 249.26 60.3774 249.26C60.9751 249.26 61.4641 249.749 61.4641 250.347ZM57.0305 254.748C54.6714 256.205 53.3544 254.489 55.582 252.86C57.0523 251.785 57.7542 251.714 58.052 252.608C58.2813 253.296 57.8216 254.259 57.0305 254.748ZM52.17 258.269C49.5816 259.717 47.7625 257.864 50.0977 256.157C51.669 255.008 52.2775 254.982 52.9295 256.037C53.4098 256.813 53.0893 257.754 52.17 258.269ZM48.4243 261.214C48.4243 261.811 47.9353 262.3 47.3377 262.3C46.74 262.3 46.251 261.811 46.251 261.214C46.251 260.616 46.74 260.127 47.3377 260.127C47.9353 260.127 48.4243 260.616 48.4243 261.214ZM323.346 261.239C323.346 262.561 329.963 264.298 332.039 263.52C333.28 263.053 333.15 262.82 331.496 262.541C330.3 262.339 327.977 261.739 326.334 261.207C324.54 260.627 323.346 260.639 323.346 261.239ZM165.782 262.095C165.782 263.508 180.893 265.01 182.177 263.726C182.771 263.133 181.536 262.751 179.092 262.772C176.852 262.79 172.941 262.405 170.4 261.914C167.486 261.352 165.782 261.418 165.782 262.095ZM17.2767 266.375C18.8523 269.839 18.8708 270.123 17.3984 268.277C14.7665 264.976 13.468 262.3 14.4992 262.3C15.0067 262.3 16.2574 264.135 17.2767 266.375ZM26.6696 263.956C25.9133 264.867 25.0712 265.389 24.7974 265.116C24.0443 264.362 25.5754 262.3 26.8881 262.3C27.6096 262.3 27.527 262.924 26.6696 263.956ZM78.8504 267.762C78.8504 268.344 78.2256 268.82 77.4628 268.82C75.3199 268.82 71.1309 265.535 71.8307 264.403C72.5717 263.204 78.8504 266.209 78.8504 267.762ZM57.7032 271.062C58.0954 271.698 57.5489 273.176 56.4894 274.348C54.0075 277.09 52.0472 275.384 54.0292 272.209C55.6266 269.651 56.6361 269.335 57.7032 271.062ZM9.30504 272.08C7.17738 273.456 5.73866 273.456 6.58842 272.08C6.95788 271.483 8.0869 271.001 9.09748 271.01C10.6807 271.025 10.7101 271.173 9.30504 272.08ZM143.529 272.506C145.286 273.791 145.379 274.281 144.147 275.767C143.349 276.727 141.365 277.514 139.738 277.514C136.949 277.514 132.178 281.219 133.397 282.437C133.706 282.746 134.578 282.254 135.334 281.343C137.066 279.257 140.942 279.111 140.155 281.162C139.844 281.974 137.59 283.237 135.147 283.969C131.528 285.052 130.525 285.031 129.733 283.852C128.306 281.728 129.707 273.928 131.796 272.352C134.204 270.536 140.957 270.625 143.529 272.506ZM154.436 283.526C152.078 285.309 150.569 285.578 150.569 284.216C150.569 282.694 151.906 281.859 154.282 281.896C156.506 281.929 156.509 281.957 154.436 283.526ZM155.485 288.299C155.092 289.539 154.314 290.554 153.756 290.554C152.233 290.554 152.536 286.462 154.101 285.903C156.016 285.22 156.304 285.717 155.485 288.299ZM143.444 291.883C145.576 294.926 145.581 295.988 143.468 295.988C142.55 295.988 140.614 296.765 139.165 297.713C137.409 298.864 135.446 299.202 133.278 298.725C129.781 297.958 124.49 294.298 124.49 292.648C124.49 291.001 131.417 291.504 134.041 293.342C135.377 294.277 137.807 294.847 139.444 294.608L142.419 294.173L138.888 293.315C135.239 292.428 134.347 291.143 136.714 290.187C139.624 289.013 141.823 289.568 143.444 291.883ZM94.6035 293.805C95.4163 296.366 94.522 298.161 92.4335 298.161C91.6076 298.161 90.6264 297.668 90.2537 297.065C89.2311 295.41 90.7459 291.641 92.4335 291.641C93.2495 291.641 94.2264 292.615 94.6035 293.805ZM126.294 297.075C129.122 298.868 132.317 300.335 133.396 300.335C136.159 300.335 135.83 301.947 132.639 304.038C131.145 305.017 129.923 306.371 129.923 307.047C129.923 309.787 119.607 317.799 110.711 321.97C108.214 323.141 105.629 325.11 104.967 326.347L103.764 328.595L100.71 326.337C99.0305 325.096 95.7336 323.821 93.3821 323.506C89.5962 322.999 88.4574 323.446 83.4349 327.416C80.3163 329.882 77.7637 332.611 77.7637 333.479C77.7637 336.662 73.1824 338.008 62.6691 337.916C54.2585 337.842 52.258 337.496 51.2844 335.954C50.4042 334.559 50.4694 333.728 51.5408 332.694C52.7144 331.561 53.2827 331.755 54.6366 333.75C56.5654 336.593 60.3774 337.039 60.3774 334.422C60.3774 333.446 61.3782 331.029 62.6018 329.049C63.8242 327.071 64.7262 324.323 64.6056 322.944C64.009 316.141 64.5219 315.583 77.5964 308.787C80.7911 307.126 84.2282 305.768 85.2333 305.768C86.2374 305.768 88.1662 304.993 89.5191 304.046C91.9271 302.359 91.963 302.387 91.2469 305.404C90.8448 307.098 89.8549 310.441 89.0453 312.832C88.2368 315.222 87.5686 318.035 87.5599 319.08C87.5403 321.399 90.5438 321.521 93.456 319.317C94.6165 318.44 96.6942 317.722 98.0742 317.722C99.4543 317.722 100.583 317.296 100.583 316.774C100.583 316.252 102.533 315.515 104.915 315.133C107.298 314.753 110.842 313.742 112.793 312.887C114.743 312.033 117.735 311.037 119.44 310.676C122.352 310.057 122.496 309.774 121.806 305.991C121.401 303.776 120.128 300.348 118.977 298.371C117.825 296.394 116.883 294.56 116.883 294.296C116.883 292.789 121.848 294.255 126.294 297.075ZM161.436 295.899C161.436 298.072 162.829 300.335 164.166 300.335C165.282 300.335 165.315 299.767 164.322 297.627C163.081 294.95 161.436 293.965 161.436 295.899ZM88.5411 299.082C89.882 301.586 88.1325 303.595 84.6096 303.595C81.5551 303.595 81.1443 299.918 84.012 298.248C86.6916 296.688 87.3219 296.804 88.5411 299.082ZM144.049 298.176C144.049 298.782 143.596 300.127 143.042 301.165C142.488 302.203 141.769 303.908 141.446 304.953C140.453 308.161 138.073 307.141 138.073 303.507C138.073 301.447 138.884 299.566 140.182 298.617C142.665 296.802 144.049 296.643 144.049 298.176ZM79.9207 302.236C79.8979 304.768 78.8102 306.265 75.8621 307.816C72.9162 309.368 72.7597 308.186 75.3188 303.689C77.4008 300.032 79.9468 299.228 79.9207 302.236ZM301.188 301.881C301.514 302.731 302.469 303.691 303.311 304.014C304.572 304.498 304.607 304.226 303.509 302.468C301.973 300.008 300.308 299.587 301.188 301.881ZM96.2367 301.901C96.2367 302.165 95.7477 302.682 95.1501 303.051C94.5524 303.421 94.0634 303.205 94.0634 302.572C94.0634 301.94 94.5524 301.421 95.1501 301.421C95.7477 301.421 96.2367 301.636 96.2367 301.901ZM421.506 304.953C420.293 307.248 419.569 311.365 419.44 316.705C419.213 326.082 417.911 328.892 413.134 330.307C411.282 330.857 409.198 332.457 408.506 333.865C407.813 335.273 406.095 336.991 404.687 337.683C403.279 338.375 401.38 340.403 400.465 342.188C395.977 350.951 395.425 351.351 388.186 351.098C379.957 350.812 379.458 350.017 377.818 334.582L376.665 323.732L379.956 320.726C381.765 319.074 383.705 317.722 384.265 317.722C386.103 317.722 385.332 315.815 383.278 315.277C380.93 314.663 372.431 317.303 370.072 319.38C367.59 321.564 350.901 327.37 343.302 328.694C330.364 330.947 313.81 326.47 304.721 318.257C299.955 313.951 298.858 313.518 300.502 316.59C302.125 319.622 307.787 323.706 314.855 326.942C320.329 329.448 320.986 330.111 321.384 333.532C321.7 336.23 321.261 337.849 319.871 339.107C317.729 341.045 317.117 339.599 319.198 337.518C319.905 336.811 320.203 335.951 319.86 335.608C319.518 335.264 318.224 336.405 316.988 338.142L314.738 341.301L317.955 341.392C319.725 341.442 321.172 341.027 321.172 340.47C321.172 338.038 323.03 339.789 324.364 343.481C325.165 345.694 328.373 350.059 331.493 353.18C336.405 358.091 338.397 359.228 346.314 361.644C354.289 364.076 356.18 365.164 361.087 370.146C367.553 376.713 369.542 380.84 370.647 389.987C372.028 401.41 374.486 404.227 383.771 405.024C388.942 405.467 389.105 405.589 389.741 409.47C390.1 411.665 390.969 414.037 391.672 414.74C393.75 416.818 401.157 416.264 404.526 413.781C408.812 410.622 414.31 401.086 416.994 392.16C421.312 377.796 425.237 371.812 434.829 364.963C442.058 359.802 451.657 349.859 454.599 344.486C457.356 339.448 457.195 322.801 454.341 318.049C451.357 313.08 446.569 309.911 441.67 309.661C438.324 309.49 436.666 308.603 433.762 305.432C428.817 300.034 424.202 299.853 421.506 304.953ZM430.581 305.121C433.493 307.626 433.54 307.823 431.729 309.826C429.618 312.158 429.093 314.554 431.141 312.506C433.897 309.75 439.617 311.684 439.617 315.372C439.617 316.232 437.661 319.057 435.27 321.651C432.88 324.245 430.926 327.234 430.928 328.293C430.93 329.623 431.574 329.166 433.008 326.814C437.205 319.931 443.245 317.864 445.077 322.682C446.506 326.441 446.518 326.415 443.371 326.415C440.173 326.415 435.262 330.842 435.289 333.702C435.302 335.069 436.001 334.569 437.626 332.03C439.751 328.71 440.271 328.469 443.847 329.141C449.087 330.123 449.397 330.397 449.397 334.044C449.397 337.695 445.429 341.981 442.707 341.27C441.348 340.914 440.714 341.779 440.16 344.745C439.417 348.721 437.88 351.409 436.35 351.409C435.895 351.409 434.431 348.721 433.098 345.436C431.241 340.86 429.198 338.268 424.366 334.357C418.49 329.599 418.164 329.099 419.601 327.048C420.594 325.631 421.144 321.999 421.144 316.865C421.144 309.206 422.279 305.048 424.839 303.339C426.677 302.111 427.31 302.308 430.581 305.121ZM71.358 307.007C70.9744 308.885 69.5693 311.144 68.2349 312.03C65.9617 313.539 65.8106 313.484 65.8106 311.132C65.8106 308.793 69.5943 303.595 71.296 303.595C71.7144 303.595 71.7416 305.13 71.358 307.007ZM133.598 314.146C132.544 314.918 131.297 315.548 130.829 315.548C129.459 315.548 131.145 308.673 133.06 306.456C134.725 304.527 134.83 304.634 135.164 308.586C135.417 311.594 134.984 313.133 133.598 314.146ZM150.732 308.311C147.652 311.589 146.222 316.705 146.222 324.445C146.222 329.421 146.653 330.94 148.411 332.172C150.529 333.655 150.46 333.803 146.3 336.686C143.934 338.325 139.336 342.502 136.082 345.968C132.361 349.931 128.922 352.543 126.813 353.007C121.707 354.128 112.603 362.943 109.647 369.627C105.99 377.893 106.208 381.71 111.107 395.285C111.943 397.6 112.484 399.618 112.31 399.769C112.135 399.92 109.934 401.081 107.418 402.35C101.687 405.24 96.3117 405.284 91.0871 402.484C85.9853 399.75 77.14 399.555 74.3115 402.116C72.4316 403.816 72.0893 403.692 68.3393 399.942C64.0557 395.657 59.5157 394.704 57.1229 397.587C56.0406 398.891 56.1525 400.333 57.6901 404.923C58.7431 408.064 60.2101 413.568 60.9479 417.154C61.6868 420.74 62.3497 422.422 62.4214 420.89C62.492 419.359 61.5466 414.276 60.3209 409.592C57.8227 400.055 58.4855 397.734 62.8821 400.615C65.5107 402.337 69.2075 409.061 71.9763 417.154C73.4193 421.374 73.4465 421.391 72.8836 417.766C72.4142 414.742 70.0833 409.072 66.0443 401.126C65.8161 400.677 66.1507 400.311 66.7886 400.311C69.6867 400.311 77.1922 420.431 76.4109 426.107L75.999 429.108L74.7255 426.391L73.4509 423.675L73.7062 426.935C73.904 429.474 74.4169 430.115 76.0273 429.837C77.9376 429.507 78.0408 429.999 77.3856 436.357C75.9501 450.299 74.6798 455.215 69.8682 465.44C64.636 476.561 60.5111 482.953 54.5052 489.244C48.1113 495.941 36.4668 504.633 33.8882 504.633C30.9304 504.633 31.9171 502.972 35.6834 501.609C49.8674 496.481 66.5648 474.801 71.7524 454.78C74.255 445.122 72.9858 445.147 70.1094 454.813C66.6365 466.485 64.0753 471.551 56.6795 481.378C49.7978 490.52 44.6558 495.112 36.6722 499.241C31.0184 502.165 29.5612 501.247 31.0869 495.72C31.8921 492.807 34.0317 490.261 39.2052 486.063C47.8419 479.056 57.45 465.253 59.6972 456.625C60.5643 453.298 61.5532 447.701 61.8955 444.188C62.3997 439.01 62.0519 439.875 60.0568 448.764C56.8252 463.164 52.8404 469.737 38.9161 483.644C29.2004 493.348 27.778 495.236 27.778 498.425C27.778 502.983 31.7823 507.149 35.6725 506.639C37.1406 506.447 39.1693 506.976 40.181 507.816C41.1927 508.655 44.0723 509.707 46.5803 510.153C49.0882 510.599 52.9621 511.313 55.1865 511.739C57.9846 512.276 60.3372 511.991 62.8093 510.818C69.0184 507.872 71.4851 504.268 72.8021 496.223L74.0039 488.876L79.0895 487.616C85.9125 485.924 86.207 485.676 87.6501 480.409C89.7256 472.834 92.0086 468.515 95.8488 464.893C99.5619 461.39 100.409 457.617 98.8164 451.674C98.2296 449.484 97.9395 449.693 95.8434 453.827C93.3495 458.742 91.2599 459.787 83.5458 459.97C77.4823 460.115 75.3786 458.03 76.801 453.286C77.3834 451.344 78.1517 444.571 78.5092 438.233C79.0666 428.346 78.8287 425.623 76.8314 419.047C73.9257 409.481 73.9333 408.44 76.9194 406.349C79.6752 404.418 78.707 404.076 75.4372 405.827C73.453 406.887 73.3639 406.788 74.4593 404.74C75.1927 403.37 76.8249 402.438 78.6168 402.369C88.1814 401.995 92.616 403.901 93.1735 408.625C93.3647 410.235 94.0678 411.733 94.7361 411.952C95.5033 412.203 95.7575 411.332 95.4239 409.591C94.9512 407.117 95.2446 406.831 98.2536 406.831C107.543 406.831 120.257 396.532 121.578 387.935C122.499 381.952 132.31 368.731 135.757 368.832C136.433 368.853 135.886 369.786 134.541 370.909C130.096 374.618 132.003 374.293 137.387 370.424C143.919 365.732 145.813 365.469 140.748 369.957C136.595 373.639 137.893 373.189 144.75 368.57C150.691 364.568 152.083 364.751 147.309 368.904L143.506 372.214L148.667 369.315C154.288 366.159 155.203 366.638 151.384 370.737L148.939 373.363L152.918 371.028C157.454 368.368 159.649 369.755 155.356 372.568C153.815 373.578 152.809 374.659 153.122 374.971C153.433 375.283 154.807 374.755 156.174 373.797C159.398 371.538 161.024 371.564 159.132 373.843C157.805 375.443 157.933 375.543 160.358 374.795C164.278 373.585 164.296 373.437 160.929 369.922C156.119 364.901 151.817 363.322 145.037 364.091C137.646 364.929 132.308 367.574 127.916 372.576C123.904 377.145 119.056 386.289 119.056 389.287C119.056 392.194 115.144 396.809 113.858 395.42C112.128 393.555 109.276 383.254 109.287 378.916C109.3 373.773 113.408 364.867 117.561 360.98C123.526 355.394 132.534 352.217 145.086 351.271C157.63 350.326 163.377 349.402 164.113 348.213C164.375 347.788 161.802 347.869 158.395 348.393C149.416 349.772 135.356 350.403 135.356 349.427C135.356 347.963 143.286 340.998 149.706 336.82C153.117 334.602 160.452 331.195 166.006 329.248C175.991 325.749 185.905 321.123 183.616 321.03C182.966 321.004 176.035 323.366 168.211 326.279C159.585 329.493 152.926 331.375 151.289 331.062C148.904 330.606 148.541 329.895 148.164 324.949C147.611 317.672 149.006 312.464 152.503 308.756C154.054 307.113 154.827 305.768 154.221 305.768C153.616 305.768 152.046 306.912 150.732 308.311ZM103.843 309.571C103.843 311.066 103.422 312.288 102.908 312.288C102.393 312.288 102.205 311.066 102.49 309.571C102.776 308.077 103.198 306.855 103.427 306.855C103.655 306.855 103.843 308.077 103.843 309.571ZM95.1501 309.999C95.1501 310.532 94.3764 311.266 93.431 311.629C90.7731 312.649 90.4221 312.427 91.8901 310.658C93.3897 308.852 95.1501 308.496 95.1501 309.999ZM215.617 312.349C213.186 314.467 213.176 314.524 215.435 313.43C216.747 312.796 218.12 311.791 218.488 311.196C219.556 309.467 218.386 309.938 215.617 312.349ZM51.8461 313.462C53.7923 314.503 53.8597 314.838 52.4492 316.45C49.1295 320.241 47.279 325.262 48.0788 328.307C49.7511 334.681 48.0896 337.238 42.2554 337.266C35.8149 337.296 31.3281 327.775 34.7065 321.244C38.513 313.88 46.1499 310.414 51.8461 313.462ZM128.836 316.418C128.836 319.912 127.094 322.068 124.272 322.068C122.16 322.068 121.639 320.442 123.403 319.352C124.001 318.982 124.49 317.772 124.49 316.661C124.49 314.844 125.752 313.7 128.021 313.461C128.469 313.414 128.836 314.744 128.836 316.418ZM449.188 315.883C451.965 318.076 453.912 324.61 453.209 329.379C452.461 334.447 450.483 336.777 450.483 332.589C450.483 331.133 449.75 329.333 448.853 328.589C447.957 327.844 447.223 325.864 447.223 324.188C447.223 322.23 446.251 320.374 444.507 319.003C440.687 315.998 440.846 313.108 444.779 314.048C446.422 314.44 448.406 315.266 449.188 315.883ZM92.9768 316.635C92.3368 317.83 91.0806 318.808 90.1841 318.808C88.891 318.808 88.7943 318.36 89.7169 316.635C90.3569 315.44 91.6131 314.462 92.5095 314.462C93.8027 314.462 93.8994 314.91 92.9768 316.635ZM288.689 324.785C280.191 360.297 270.678 379.773 251.627 400.666C246.538 406.247 235.104 414.391 226.57 418.511C217.34 422.967 204.736 421.146 199.19 414.554C197.846 412.956 193.572 405.611 189.694 398.232C184.009 387.419 181.515 383.851 176.839 379.857C171.031 374.895 167.749 373.695 164.695 375.418C163.559 376.059 164.217 376.352 166.869 376.387C169.879 376.426 170.332 376.681 169.042 377.609C167.703 378.572 167.783 378.66 169.482 378.105C172.123 377.242 176.76 381.367 175.842 383.76C175.364 385.007 175.6 385.208 176.735 384.523C178.062 383.723 178.061 383.86 176.73 385.5C175.311 387.249 175.423 387.346 178.079 386.68C180.253 386.135 181.153 386.415 181.686 387.808C182.102 388.89 181.767 390.063 180.882 390.624C179.764 391.331 180.079 391.599 182.082 391.639L184.798 391.694L182.082 393.247L179.365 394.8L182.082 394.925L184.798 395.049L181.81 396.14C180.167 396.741 178.822 397.668 178.822 398.201C178.822 398.745 180.044 398.706 181.609 398.11C185.058 396.799 186.428 396.768 186.428 398.001C186.428 398.524 184.84 399.329 182.897 399.791L179.365 400.629L183.168 401.326L186.972 402.022L182.897 402.846C180.656 403.299 178.822 404.079 178.822 404.58C178.822 405.859 174.592 406.656 161.436 407.851C155.16 408.421 147.257 409.851 143.872 411.028C137.7 413.175 113.42 427.231 110.363 430.427C108.368 432.513 107.428 433.032 125.914 421.842C133.571 417.208 141.639 412.901 143.844 412.272C148.915 410.823 163.809 408.842 164.491 409.525C165.491 410.524 162.177 413.402 157.76 415.369C155.299 416.465 150.171 419.382 146.364 421.852C138.602 426.887 134.024 428.157 129.64 426.49C127.81 425.795 126.663 425.759 126.663 426.398C126.663 426.969 127.915 427.751 129.445 428.135C134.813 429.482 140.862 427.749 148.488 422.677C152.607 419.938 156.726 417.698 157.643 417.698C158.56 417.698 161.419 415.755 163.996 413.379C168.367 409.35 169.402 408.95 179.456 407.408C191.568 405.551 189.73 404.803 196.33 414.26C200.379 420.062 207.466 423.529 215.359 423.569C222.039 423.603 232.969 418.534 244.165 410.213C251.781 404.552 265.347 388.529 271.695 377.695C280.563 362.564 292.502 326.381 291.62 317.311C291.38 314.847 290.577 316.895 288.689 324.785ZM426.668 319.4C424.221 324.931 423.837 326.893 425.388 325.935C426.54 325.223 430.044 315.393 429.382 314.73C429.134 314.483 427.914 316.584 426.668 319.4ZM54.9442 319.959C54.9442 321.189 54.4552 321.895 53.8575 321.525C53.2599 321.156 52.7709 320.149 52.7709 319.288C52.7709 318.426 53.2599 317.722 53.8575 317.722C54.4552 317.722 54.9442 318.729 54.9442 319.959ZM121.23 321.525C121.23 324.529 117.795 328.589 115.253 328.589C113.003 328.589 113.214 327.122 115.803 324.779C117.003 323.694 117.739 322.563 117.443 322.265C116.75 321.574 119.017 318.808 120.276 318.808C120.8 318.808 121.23 320.031 121.23 321.525ZM372.343 321.886C371.756 322.981 370.517 324.508 369.588 325.28C368.659 326.05 367.918 327.232 367.943 327.906C367.967 328.581 369.371 327.515 371.063 325.537C373.664 322.498 374.246 322.228 374.846 323.789C375.235 324.804 374.809 326.772 373.9 328.161C371.853 331.285 371.699 333.01 373.714 330.255C375.109 328.346 375.215 328.378 375.817 330.862C376.165 332.301 376.795 337.072 377.215 341.464C378.202 351.764 380.812 355.177 386.464 353.557C388.496 352.973 391.688 352.783 393.556 353.134C396.522 353.69 397.042 353.424 397.639 351.044C398.593 347.244 403.548 341.629 405.948 341.629C408.551 341.629 411.611 345.604 414.046 352.144C415.118 355.027 416.421 357.851 416.94 358.418C418.647 360.285 417.936 362.79 414.003 368.764C411.867 372.005 408.1 378.583 405.629 383.381C399.134 395.997 391.61 403.584 385.611 403.564C381.351 403.551 375.466 401.182 374.305 399.013C373.631 397.755 372.621 393.021 372.059 388.496C370.887 379.049 369.223 375.936 361.064 367.912C355.983 362.914 354.235 361.919 348.077 360.514C338.734 358.383 331.894 353.947 328.18 347.609L325.217 342.554L330.489 337.201C333.389 334.257 336.481 331.849 337.362 331.849C338.462 331.849 338.048 332.806 336.045 334.897C331.31 339.84 332.712 340.307 337.744 335.462C340.91 332.413 343.728 330.778 346.709 330.261C349.099 329.846 353.989 328.329 357.575 326.889C361.379 325.362 364.249 324.729 364.466 325.369C364.67 325.973 366.52 324.987 368.579 323.181C372.881 319.403 373.85 319.07 372.343 321.886ZM269.834 323.699C270.12 325.193 270.541 326.415 270.771 326.415C270.999 326.415 271.187 325.193 271.187 323.699C271.187 322.204 270.765 320.982 270.251 320.982C269.736 320.982 269.548 322.204 269.834 323.699ZM110.709 328.345C106.478 334.011 102.027 334.555 104.977 329.045C106.685 325.852 111.766 322.699 112.393 324.442C112.612 325.054 111.855 326.81 110.709 328.345ZM97.7841 326.575C100.911 328 103.295 333.903 102.317 337.8C100.79 343.883 92.7432 350.323 86.6699 350.323C83.2111 350.323 80.5521 352.453 74.0605 360.422C71.2156 363.915 69.4574 365.271 68.725 364.539C67.9915 363.805 69.0804 361.873 72.0306 358.672C74.4506 356.047 76.7629 352.85 77.1704 351.568C77.5768 350.286 78.6863 349.236 79.635 349.236C81.1367 349.236 81.1084 348.957 79.4144 347.085C77.616 345.098 77.6062 344.881 79.2861 344.237C80.3521 343.827 82.0104 344.359 83.2915 345.518C85.4094 347.434 85.6017 347.432 89.3061 345.437C91.4098 344.303 94.1352 341.968 95.3609 340.246C100.708 332.737 92.4074 325.799 85.8821 332.325C82.809 335.398 78.5038 336.189 79.5393 333.491C80.5945 330.742 88.8943 325.329 92.0531 325.329C93.7005 325.329 96.2791 325.889 97.7841 326.575ZM33.2199 332.411C36.1984 338.562 38.5988 339.886 45.1926 339.011C49.3903 338.454 50.477 338.659 51.0355 340.115C52.2591 343.306 49.8108 344.633 42.9758 344.486C36.7341 344.351 36.4082 344.201 34.4174 340.542C32.6755 337.34 31.8247 336.781 29.0374 337.006C24.417 337.38 23.9193 335.749 27.3032 331.312C28.9016 329.217 30.3523 327.502 30.5261 327.502C30.7011 327.502 31.9138 329.711 33.2199 332.411ZM94.0634 332.508C94.0634 332.743 93.33 332.935 92.4335 332.935C91.537 332.935 90.8035 332.462 90.8035 331.882C90.8035 331.304 91.537 331.112 92.4335 331.455C93.33 331.8 94.0634 332.274 94.0634 332.508ZM328.779 331.68C328.779 332.909 324.556 336.682 323.908 336.033C323.188 335.313 326.51 330.762 327.754 330.762C328.318 330.762 328.779 331.175 328.779 331.68ZM425.103 336.94C428.84 339.781 432.612 347.456 433.741 354.51C434.887 361.679 432.681 359.836 429.202 350.72C425.636 341.376 418.832 334.05 413.656 333.987C410.969 333.955 410.927 333.872 412.867 332.404C414.648 331.055 415.35 331.08 418.3 332.6C420.163 333.559 423.224 335.512 425.103 336.94ZM455.377 335.381C454.974 337.92 453.669 341.955 452.476 344.346C449.76 349.79 439.44 360.43 433.472 363.939C425.725 368.493 420.071 377.163 415.793 391.047C413.557 398.302 408.402 408.577 407.467 407.643C407.222 407.398 409.473 400.7 412.47 392.758C419.305 374.647 424.649 366.384 433.11 360.841C442.903 354.425 449.881 346.431 451.974 339.228C452.948 335.883 453.743 332.608 453.743 331.953C453.743 331.298 454.276 330.762 454.926 330.762C455.707 330.762 455.859 332.329 455.377 335.381ZM303.243 335.059C296.415 338.252 291.677 342.628 287.533 349.565C283.628 356.105 285.748 355.459 290.847 348.556C293.4 345.1 295.686 342.865 295.926 343.587C296.168 344.311 296.733 344.676 297.18 344.399C297.629 344.121 299.864 343.769 302.149 343.614C305.109 343.416 307.386 342.31 310.085 339.765C314.62 335.488 315.3 335.284 312.923 338.912C311.944 340.406 311.565 341.623 312.083 341.616C313.533 341.595 318.071 334.071 317.343 332.893C316.17 330.995 309.861 331.964 303.243 335.059ZM329.91 336.196C327.245 338.535 324.833 340.218 324.551 339.936C323.664 339.05 331.294 331.847 333.067 331.895C334.087 331.923 332.837 333.627 329.91 336.196ZM87.2111 337.86C84.1793 340.527 79.2698 341.862 81.8017 339.33C83.3469 337.784 87.7565 335.344 89.1735 335.25C89.7712 335.21 88.8877 336.385 87.2111 337.86ZM94.8784 336.467C94.6307 337.215 93.5049 338.004 92.3781 338.222C90.6057 338.566 90.5253 338.383 91.7858 336.864C93.5093 334.787 95.5239 334.529 94.8784 336.467ZM416.722 336.7C421.345 339.09 425.179 344.251 427.277 350.908C428.727 355.509 428.862 357.166 427.867 358.161C426.099 359.929 425.041 358.534 422.748 351.409C421.471 347.445 419.286 343.884 416.256 340.834C413.744 338.304 411.941 335.98 412.251 335.672C413.051 334.871 413.295 334.927 416.722 336.7ZM79.937 338.248C79.937 340.35 75.9469 343.667 72.6022 344.345C70.6603 344.739 69.0706 344.695 69.0706 344.246C69.0706 342.395 72.8412 339.456 75.2156 339.456C76.6173 339.456 77.7637 338.967 77.7637 338.369C77.7637 337.771 78.2527 337.282 78.8504 337.282C79.4481 337.282 79.937 337.717 79.937 338.248ZM414.651 341.357C416.945 343.421 419.093 347.45 421.594 354.378C424.721 363.042 425.014 364.673 423.74 366.332C422.348 368.147 422.232 368.129 421.634 366.02C421.286 364.791 418.929 359.169 416.399 353.528C412.945 345.833 410.887 342.658 408.159 340.819L404.523 338.369H407.926C410.11 338.369 412.52 339.44 414.651 341.357ZM68.8022 340.814C68.5555 341.562 67.0472 342.906 65.452 343.802C62.8734 345.251 62.228 345.251 59.6494 343.802C54.3367 340.817 55.2452 339.456 62.5507 339.456C67.4265 339.456 69.1293 339.825 68.8022 340.814ZM447.403 345.688C444.162 350.188 437.573 356.247 436.782 355.456C436.399 355.074 437.37 353.236 438.939 351.372C440.507 349.508 441.79 347.043 441.79 345.895C441.79 344.565 443.07 343.279 445.322 342.347C449.605 340.575 450.292 341.677 447.403 345.688ZM89.217 343.308C86.8905 345.067 85.2018 344.927 84.5325 342.92C84.2565 342.091 85.3996 341.641 87.725 341.664C91.1599 341.696 91.2371 341.781 89.217 343.308ZM245.72 345.657C245.131 347.206 245.255 347.331 246.329 346.266C247.072 345.528 247.406 344.651 247.071 344.318C246.736 343.983 246.129 344.586 245.72 345.657ZM305.771 345.106C299.511 345.889 291.039 348.803 292.059 349.824C292.367 350.131 294.031 349.841 295.757 349.178C298.98 347.941 305.687 347.081 315.111 346.698C318.324 346.568 320.645 345.926 320.924 345.091C321.419 343.606 317.75 343.609 305.771 345.106ZM59.081 356.656C59.469 361.913 60.9783 362.613 61.9911 358.004C62.3757 356.253 63.3602 354.263 64.1796 353.584C65.4216 352.552 65.5651 353.354 65.0424 358.415C64.548 363.209 64.8022 364.908 66.2518 366.51C67.9991 368.44 67.7949 368.875 62.0595 375.451C58.7431 379.254 56.0308 382.787 56.0308 383.304C56.0308 383.82 55.3864 383.995 54.5975 383.693C53.675 383.339 53.1914 383.974 53.2392 385.478C53.2903 387.053 52.5709 387.92 51.0355 388.14C49.0002 388.43 48.7492 387.906 48.6873 383.249C48.6492 380.381 48.8687 374.883 49.1741 371.032L49.7283 364.03L51.7212 366.673L53.7141 369.315L54.9377 366.096C55.6114 364.325 56.0852 361.153 55.9906 359.044C55.7048 352.623 55.9732 351.209 57.3891 351.674C58.1367 351.92 58.8974 354.162 59.081 356.656ZM54.1574 362.411C53.6478 362.921 53.1827 361.268 53.123 358.731L53.0154 354.126L54.0488 357.806C54.6182 359.832 54.6671 361.901 54.1574 362.411ZM428.949 361.425C428.17 362.205 427.664 362.269 427.664 361.588C427.664 360.97 427.99 360.139 428.389 359.741C428.786 359.342 429.366 359.269 429.674 359.578C429.983 359.887 429.657 360.718 428.949 361.425ZM48.4243 364.45C46.3325 368.551 45.1589 369.823 45.1687 367.981C45.1741 366.836 49.3545 360.103 50.0608 360.103C50.3803 360.103 49.6435 362.059 48.4243 364.45ZM419.956 367.981C420.644 369.818 419.998 372.185 417.357 377.49C415.424 381.375 412.971 387.243 411.909 390.53C407.137 405.282 401.129 413.351 394.918 413.351C391.975 413.351 391.805 413.096 391.805 408.687C391.805 404.567 392.389 403.458 396.817 399.178C399.709 396.383 403.116 391.506 404.874 387.648C407.752 381.327 417.526 365.536 418.561 365.536C418.825 365.536 419.453 366.636 419.956 367.981ZM57.1175 373.687C53.8999 376.944 51.5126 379.855 51.8114 380.153C52.1102 380.452 54.9866 378.031 58.2041 374.773C61.4217 371.515 63.809 368.605 63.5102 368.306C63.2114 368.007 60.335 370.429 57.1175 373.687ZM47.3377 373.207C47.3377 374.368 46.9008 375.317 46.3673 375.317C45.0915 375.317 43.8984 372.139 44.6927 370.854C45.6403 369.32 47.3377 370.831 47.3377 373.207ZM374.434 373.958C374.444 374.407 374.926 375.507 375.505 376.403C376.357 377.721 376.561 377.565 376.575 375.588C376.584 374.243 376.102 373.143 375.505 373.143C374.907 373.143 374.426 373.509 374.434 373.958ZM384.198 381.539C384.198 383.347 380.824 384.181 379.145 382.789C377.931 381.781 377.765 381.886 378.313 383.314C379.179 385.571 384.055 385.65 384.91 383.42C385.264 382.497 385.248 381.438 384.876 381.065C384.503 380.692 384.198 380.907 384.198 381.539ZM78.57 408.053C76.2881 409.33 76.0403 413.351 78.243 413.351C80.3445 413.351 81.3834 411.504 79.6719 410.81C78.6341 410.389 78.6896 409.991 79.9055 409.147C82.0679 407.644 80.9433 406.724 78.57 408.053ZM61.5401 425.576C61.5825 426.324 62.0215 427.913 62.5159 429.108C63.2462 430.872 63.4059 430.615 63.3613 427.75C63.3309 425.807 62.8919 424.218 62.3855 424.218C61.8792 424.218 61.4988 424.83 61.5401 425.576ZM103.181 435.944C101.323 437.564 99.2446 439.956 98.5633 441.262C97.0333 444.191 96.9452 448.125 98.41 448.125C99.0077 448.125 99.4967 446.831 99.4967 445.249C99.4967 443.56 101.096 440.419 103.373 437.642C107.86 432.167 107.828 431.894 103.181 435.944ZM73.4172 442.692C73.4172 444.485 73.6062 445.952 73.8377 445.952C74.0681 445.952 74.4723 444.485 74.7353 442.692C74.9982 440.899 74.8102 439.432 74.3158 439.432C73.8214 439.432 73.4172 440.899 73.4172 442.692ZM96.3541 462.034C94.8393 464.864 83.3926 467.3 77.9409 465.952C75.0124 465.229 73.9605 464.394 73.9605 462.796C73.9605 461.223 74.5614 460.724 76.1338 460.992C81.1247 461.84 92.5487 460.993 94.5872 459.622C97.1278 457.915 97.9536 459.043 96.3541 462.034ZM83.3665 467.67C90.2385 467.685 90.5699 467.803 89.9863 470.031C89.6495 471.321 87.4947 474.255 85.1986 476.551C80.4271 481.323 75.4938 482.076 70.0529 478.861C66.2909 476.639 66.2681 476.439 69.1466 470.796C70.995 467.174 71.8198 466.499 73.7649 467.021C75.0678 467.371 79.3883 467.663 83.3665 467.67ZM69.0141 480.374C70.7255 481.574 73.7812 482.196 77.9496 482.196C81.4334 482.196 84.2836 482.535 84.2836 482.951C84.2836 483.365 82.0386 484.332 79.2959 485.1C74.7592 486.37 73.8736 486.287 69.5161 484.169C66.8799 482.889 64.724 481.101 64.724 480.197C64.724 478.077 65.7965 478.12 69.0141 480.374ZM70.2072 488.425C71.6709 491.163 70.6093 498.546 68.1415 502.779C66.1638 506.173 60.2601 510.067 57.0925 510.067C55.9515 510.067 53.2903 509.243 51.1779 508.236C47.919 506.682 47.3377 505.857 47.3377 502.79C47.3377 499.769 48.6264 497.862 55.2071 491.146C62.9462 483.25 63.1277 483.142 66.0421 484.649C67.6721 485.492 69.5465 487.192 70.2072 488.425ZM45.1644 504.18C45.1644 508.263 43.5909 508.787 41.4632 505.412C40.582 504.016 40.8113 503.236 42.4717 501.981C43.6539 501.086 44.7438 500.34 44.8927 500.321C45.0416 500.302 45.1644 502.038 45.1644 504.18Z" fill="black"/>
</svg>
